…
Let's start with a simple example of selecting two columns from our table:


~~~
select(gapminder1960to2010, country, year)
~~~
{: .language-r}



~~~
# A tibble: 9,843 x 2
   country      year
   <chr>       <dbl>
 1 Afghanistan  1960
 2 Afghanistan  1961
 3 Afghanistan  1962
 4 Afghanistan  1963
 5 Afghanistan  1964
 6 Afghanistan  1965
 7 Afghanistan  1966
 8 Afghanistan  1967
 9 Afghanistan  1968
10 Afghanistan  1969
# … with 9,833 more rows
…
Where `select()` becomes very convenient is when combined with some other helper functions.
For example:


~~~
# Select columns which have the word "_male" in their name
select(gapminder1960to2010, contains("_male"))
~~~
{: .language-r}



~~~
# A tibble: 9,843 x 2
   population_male life_expectancy_male
             <dbl>                <dbl>
 1         4649357                 31.6
 2         4729080                 32.0
 3         4813500                 32.5
 4         4902741                 32.9
 5         4996991                 33.3
 6         5096402                 33.8
 7         5199610                 34.2
 8         5306370                 34.6
 9         5419182                 35.1
10         5541421                 35.5
# … with 9,833 more rows
~~~
{: .output}



~~~
# Select all columns between country and year
select(gapminder1960to2010, country:year)
~~~
{: .language-r}



~~~
# A tibble: 9,843 x 6
   country  world_region economic_organi… income_groups main_religion  year
   <chr>    <chr>        <chr>            <chr>         <chr>         <dbl>
 1 Afghani… south_asia   g77              low_income    muslim         1960
 2 Afghani… south_asia   g77              low_income    muslim         1961
 3 Afghani… south_asia   g77              low_income    Muslim         1962
 4 Afghani… south_asia   g77              low_income    muslim         1963
 5 Afghani… south_asia   g77              low_income    muslim         1964
 6 Afghani… south_asia   g77              low_income    muslim         1965
 7 Afghani… south_asia   g77              low_income    muslim         1966
 8 Afghani… south_asia   g77              low_income    muslim         1967
 9 Afghani… south_asia   g77              low_income    muslim         1968
10 Afghani… south_asia   g77              low_income    muslim         1969
# … with 9,833 more rows
~~~
{: .output}

And these can be combined with each other:


~~~
select(gapminder1960to2010, country, contains("_male"), contains("_men"))
~~~
{: .language-r}



~~~
# A tibble: 9,843 x 4
   country     population_male life_expectancy_male school_years_men
   <chr>                 <dbl>                <dbl>            <dbl>
 1 Afghanistan         4649357                 31.6               NA
 2 Afghanistan         4729080                 32.0               NA
 3 Afghanistan         4813500                 32.5               NA
 4 Afghanistan         4902741                 32.9               NA
 5 Afghanistan         4996991                 33.3               NA
 6 Afghanistan         5096402                 33.8               NA
 7 Afghanistan         5199610                 34.2               NA
 8 Afghanistan         5306370                 34.6               NA
 9 Afghanistan         5419182                 35.1               NA
10 Afghanistan         5541421                 35.5               NA
# … with 9,833 more rows
…
Use the `rename()` function to change column names, with the following syntax:
`rename(my_table, new_column_name = old_column_name)`. For example:


~~~
rename(gapminder1960to2010, 
       country_code = country_id, continent = world_region)
~~~
{: .language-r}



~~~
# A tibble: 9,843 x 19
   country_code country continent economic_organi… income_groups
   <chr>        <chr>   <chr>     <chr>            <chr>        
 1 afg          Afghan… south_as… g77              low_income   
 2 afg          Afghan… south_as… g77              low_income   
 3 afg          Afghan… south_as… g77              low_income   
 4 afg          Afghan… south_as… g77              low_income   
 5 afg          Afghan… south_as… g77              low_income   
 6 afg          Afghan… south_as… g77              low_income   
 7 afg          Afghan… south_as… g77              low_income   
 8 afg          Afghan… south_as… g77              low_income   
 9 afg          Afghan… south_as… g77              low_income   
10 afg          Afghan… south_as… g77              low_income   
# … with 9,833 more rows, and 14 more variables: main_religion <chr>,
#   year <dbl>, population_male <dbl>, population_female <dbl>,
#   income_per_person <dbl>, life_expectancy <dbl>,
#   life_expectancy_female <chr>, life_expectancy_male <dbl>,
#   children_per_woman <dbl>, newborn_mortality <dbl>,
#   child_mortality <dbl>, school_years_men <dbl>,
#   school_years_women <dbl>, hdi_human_development_index <dbl>
…
To create new columns or modify existing ones, we can use the `mutate()` function. 
Here is an example where we calculate the total population for each country:


~~~
mutate(gapminder1960to2010, 
       population_total = population_male + population_female)
~~~
{: .language-r}



~~~
# A tibble: 9,843 x 20
   country_id country world_region economic_organi… income_groups
   <chr>      <chr>   <chr>        <chr>            <chr>        
 1 afg        Afghan… south_asia   g77              low_income   
 2 afg        Afghan… south_asia   g77              low_income   
 3 afg        Afghan… south_asia   g77              low_income   
 4 afg        Afghan… south_asia   g77              low_income   
 5 afg        Afghan… south_asia   g77              low_income   
 6 afg        Afghan… south_asia   g77              low_income   
 7 afg        Afghan… south_asia   g77              low_income   
 8 afg        Afghan… south_asia   g77              low_income   
 9 afg        Afghan… south_asia   g77              low_income   
10 afg        Afghan… south_asia   g77              low_income   
# … with 9,833 more rows, and 15 more variables: main_religion <chr>,
#   year <dbl>, population_male <dbl>, population_female <dbl>,
#   income_per_person <dbl>, life_expectancy <dbl>,
#   life_expectancy_female <chr>, life_expectancy_male <dbl>,
#   children_per_woman <dbl>, newborn_mortality <dbl>,
#   child_mortality <dbl>, school_years_men <dbl>,
#   school_years_women <dbl>, hdi_human_development_index <dbl>,
#   population_total <dbl>
…
Now, we can check its values by using `select()`, as we've learned above:


~~~
select(gapminder1960to2010, 
       country, population_male, population_female, population_total)
~~~
{: .language-r}



~~~
# A tibble: 9,843 x 4
   country     population_male population_female population_total
   <chr>                 <dbl>             <dbl>            <dbl>
 1 Afghanistan         4649357           4346986          8996343
 2 Afghanistan         4729080           4437674          9166754
 3 Afghanistan         4813500           4532368          9345868
 4 Afghanistan         4902741           4631211          9533952
 5 Afghanistan         4996991           4734371          9731362
 6 Afghanistan         5096402           4842018          9938420
 7 Afghanistan         5199610           4952723         10152333
 8 Afghanistan         5306370           5066249         10372619
 9 Afghanistan         5419182           5185164         10604346
10 Afghanistan         5541421           5313011         10854432
# … with 9,833 more rows
…
Let's see an example in action:


~~~
gapminder1960to2010 %>% 
  mutate(., population_total = population_male + population_female) %>% 
  select(., country, world_region, population_total) %>% 
  rename(., continent = world_region)
~~~
{: .language-r}



~~~
# A tibble: 9,843 x 3
   country     continent  population_total
   <chr>       <chr>                 <dbl>
 1 Afghanistan south_asia          8996343
 2 Afghanistan south_asia          9166754
 3 Afghanistan south_asia          9345868
 4 Afghanistan south_asia          9533952
 5 Afghanistan south_asia          9731362
 6 Afghanistan south_asia          9938420
 7 Afghanistan south_asia         10152333
 8 Afghanistan south_asia         10372619
 9 Afghanistan south_asia         10604346
10 Afghanistan south_asia         10854432
# … with 9,833 more rows
…
~~~
gapminder1960to2010 %>% 
  # remove the word "_income" from the income_groups values; and then...
  mutate(world_region = str_remove(income_groups, "_income")) %>% 
  # replace the "_" with a hyphen
  mutate(income_groups = str_replace(income_groups, "_", "-"))
~~~
{: .language-r}



~~~
# A tibble: 9,843 x 20
   country_id country world_region economic_organi… income_groups
   <chr>      <chr>   <chr>        <chr>            <chr>        
 1 afg        Afghan… low          g77              low-income   
 2 afg        Afghan… low          g77              low-income   
 3 afg        Afghan… low          g77              low-income   
 4 afg        Afghan… low          g77              low-income   
 5 afg        Afghan… low          g77              low-income   
 6 afg        Afghan… low          g77              low-income   
 7 afg        Afghan… low          g77              low-income   
 8 afg        Afghan… low          g77              low-income   
 9 afg        Afghan… low          g77              low-income   
10 afg        Afghan… low          g77              low-income   
# … with 9,833 more rows, and 15 more variables: main_religion <chr>,
#   year <dbl>, population_male <dbl>, population_female <dbl>,
#   income_per_person <dbl>, life_expectancy <dbl>,
#   life_expectancy_female <dbl>, life_expectancy_male <dbl>,
#   children_per_woman <dbl>, newborn_mortality <dbl>,
#   child_mortality <dbl>, school_years_men <dbl>,
#   school_years_women <dbl>, hdi_human_development_index <dbl>,
#   population_total <dbl>
…
