…
~~~
gapminder1960to2010 %>% 
  select(country, world_region, year) %>% 
  # order by year
  arrange(year)
~~~
{: .language-r}



~~~
# A tibble: 9,843 x 3
   country              world_region              year
   <chr>                <chr>                    <dbl>
 1 Afghanistan          south_asia                1960
 2 Angola               sub_saharan_africa        1960
 3 Albania              europe_central_asia       1960
 4 Andorra              europe_central_asia       1960
 5 United Arab Emirates middle_east_north_africa  1960
 6 Argentina            america                   1960
 7 Armenia              europe_central_asia       1960
 8 Antigua and Barbuda  america                   1960
 9 Australia            east_asia_pacific         1960
10 Austria              europe_central_asia       1960
# … with 9,833 more rows
…
When ordering by a character variable, the order will be determined alphabetically:


~~~
gapminder1960to2010 %>% 
  select(country, world_region, year) %>% 
  # order by world_region
  arrange(world_region)
~~~
{: .language-r}



~~~
# A tibble: 9,843 x 3
   country   world_region  year
   <chr>     <chr>        <dbl>
 1 Argentina america       1960
 2 Argentina america       1961
 3 Argentina america       1962
 4 Argentina america       1963
 5 Argentina america       1964
 6 Argentina america       1965
 7 Argentina america       1966
 8 Argentina america       1967
 9 Argentina america       1968
10 Argentina america       1969
# … with 9,833 more rows
…
~~~
gapminder1960to2010 %>% 
  select(country, world_region, year) %>% 
  # order by year
  arrange(desc(year))
~~~
{: .language-r}



~~~
# A tibble: 9,843 x 3
   country              world_region              year
   <chr>                <chr>                    <dbl>
 1 Afghanistan          south_asia                2010
 2 Angola               sub_saharan_africa        2010
 3 Albania              europe_central_asia       2010
 4 Andorra              europe_central_asia       2010
 5 United Arab Emirates middle_east_north_africa  2010
 6 Argentina            america                   2010
 7 Armenia              europe_central_asia       2010
 8 Antigua and Barbuda  america                   2010
 9 Australia            east_asia_pacific         2010
10 Austria              europe_central_asia       2010
# … with 9,833 more rows
…
~~~
gapminder1960to2010 %>% 
  select(country, world_region, year) %>% 
  # order by year, then by world region (z-a), then country (z-a)
  arrange(year, desc(world_region), desc(country))
~~~
{: .language-r}



~~~
# A tibble: 9,843 x 3
   country      world_region        year
   <chr>        <chr>              <dbl>
 1 Zimbabwe     sub_saharan_africa  1960
 2 Zambia       sub_saharan_africa  1960
 3 Uganda       sub_saharan_africa  1960
 4 Togo         sub_saharan_africa  1960
 5 Tanzania     sub_saharan_africa  1960
 6 Swaziland    sub_saharan_africa  1960
 7 Sudan        sub_saharan_africa  1960
 8 South Sudan  sub_saharan_africa  1960
 9 South Africa sub_saharan_africa  1960
10 Somalia      sub_saharan_africa  1960
# … with 9,833 more rows
…
Sometimes it is useful to retain rows with unique combinations of some of our variables
(i.e. remove any duplicated rows). This can be done with the `distinct()` function. 


~~~
# get unique combination of main religion and world region
gapminder1960to2010 %>% 
  distinct(main_religion, world_region)
~~~
{: .language-r}



~~~
# A tibble: 27 x 2
   main_religion world_region            
   <chr>         <chr>                   
 1 muslim        south_asia              
 2 Muslim        south_asia              
 3 christian     sub_saharan_africa      
 4 Christian     sub_saharan_africa      
 5 muslim        europe_central_asia     
 6 Muslim        europe_central_asia     
 7 christian     europe_central_asia     
 8 Christian     europe_central_asia     
 9 muslim        middle_east_north_africa
10 Muslim        middle_east_north_africa
# … with 17 more rows
…
To choose rows based on specific criteria, we can use `filter()`. For example, 
to get all the rows of data from the 2000's:


~~~
gapminder1960to2010 %>% 
  select(country, year) %>% 
  filter(year > 2000)
~~~
{: .language-r}



~~~
# A tibble: 1,930 x 2
   country      year
   <chr>       <dbl>
 1 Afghanistan  2001
 2 Afghanistan  2002
 3 Afghanistan  2003
 4 Afghanistan  2004
 5 Afghanistan  2005
 6 Afghanistan  2006
 7 Afghanistan  2007
 8 Afghanistan  2008
 9 Afghanistan  2009
10 Afghanistan  2010
# … with 1,920 more rows
…
> > 
> > We used `select()` to _unselect_ the column `coutry_id` (using the `-` sign 
> > before the column name):
> > 
> > 
> > ~~~
> > gapminder1960to2010 %>% 
> >   select(-country)
> > ~~~
> > {: .language-r}
> > 
> > 
> > 
> > ~~~
> > # A tibble: 9,843 x 18
> >    country_id world_region economic_organi… income_groups main_religion
> >    <chr>      <chr>        <chr>            <chr>         <chr>        
> >  1 afg        south_asia   g77              low_income    muslim       
> >  2 afg        south_asia   g77              low_income    muslim       
> >  3 afg        south_asia   g77              low_income    Muslim       
> >  4 afg        south_asia   g77              low_income    muslim       
> >  5 afg        south_asia   g77              low_income    muslim       
> >  6 afg        south_asia   g77              low_income    muslim       
> >  7 afg        south_asia   g77              low_income    muslim       
> >  8 afg        south_asia   g77              low_income    muslim       
> >  9 afg        south_asia   g77              low_income    muslim       
> > 10 afg        south_asia   g77              low_income    muslim       
> > # … with 9,833 more rows, and 13 more variables: year <dbl>,
> > #   population_male <dbl>, population_female <dbl>,
> > #   income_per_person <dbl>, life_expectancy <dbl>,
> > #   life_expectancy_female <chr>, life_expectancy_male <dbl>,
> > #   children_per_woman <dbl>, newborn_mortality <dbl>,
> > #   child_mortality <dbl>, school_years_men <dbl>,
> > #   school_years_women <dbl>, hdi_human_development_index <dbl>
…
> > We used mutate to calculate `population_total`. To confirm we're doing the right thing, 
> > we could use the function `select()` to check that we're getting the expected result:
> > 
> > 
> > ~~~
> > gapminder1960to2010 %>% 
> >   mutate(population_total = population_male + population_female) %>% 
> >   select(population_male, population_female, population_total)
> > ~~~
> > {: .language-r}
> > 
> > 
> > 
> > ~~~
> > # A tibble: 9,843 x 3
> >    population_male population_female population_total
> >              <dbl>             <dbl>            <dbl>
> >  1         4649357           4346986          8996343
> >  2         4729080           4437674          9166754
> >  3         4813500           4532368          9345868
> >  4         4902741           4631211          9533952
> >  5         4996991           4734371          9731362
> >  6         5096402           4842018          9938420
> >  7         5199610           4952723         10152333
> >  8         5306370           5066249         10372619
> >  9         5419182           5185164         10604346
> > 10         5541421           5313011         10854432
> > # … with 9,833 more rows
…
> > no longer have values of -999:
> > 
> > 
> > ~~~
> > gapminder1960to2010 %>% 
> >   mutate(life_expectancy_male = ifelse(life_expectancy_male == -999, NA, life_expectancy_male)) %>% 
> >   arrange(life_expectancy_male) %>% 
> >   select(life_expectancy, life_expectancy_male)
> > ~~~
> > {: .language-r}
> > 
> > 
> > 
> > ~~~
> > # A tibble: 9,843 x 2
> >    life_expectancy life_expectancy_male
> >              <dbl>                <dbl>
> >  1            24.5                 16.3
> >  2            24.2                 17.2
> >  3            24.7                 17.7
> >  4            24.0                 20.3
> >  5            24.8                 20.9
> >  6            52.5                 25.1
> >  7            45.2                 25.4
> >  8            47.2                 26.0
> >  9            47.9                 26.4
> > 10            34.0                 27.4
> > # … with 9,833 more rows
…
> >   select(life_expectancy, life_expectancy_female)
> > ~~~
> > {: .language-r}
> > 
> > 
> > 
> > ~~~
> > Warning: NAs introduced by coercion
> > ~~~
> > {: .error}
> > 
> > 
> > 
> > ~~~
> > # A tibble: 9,843 x 2
> >    life_expectancy life_expectancy_female
> >              <dbl>                  <dbl>
> >  1            24.5                   22.4
> >  2            24.2                   23.1
> >  3            24.7                   23.8
> >  4            24.0                   25.9
> >  5            24.8                   27.0
> >  6            34.0                   29.0
> >  7            34.3                   29.2
> >  8            47.2                   29.3
> >  9            34.6                   29.4
> > 10            34.9                   29.7
> > # … with 9,833 more rows
…
