…
> > 
> > A1. To calculate the median per year, we combine `group_by()` and `summarise()`:
> > 
> > 
> > ~~~
> > gapminder_clean %>% 
> >   group_by(year) %>% 
> >   summarise(life_expect_median = median(life_expectancy, na.rm = TRUE))
> > ~~~
> > {: .language-r}
> > 
> > 
> > 
> > ~~~
> > # A tibble: 51 x 2
> >     year life_expect_median
> >    <dbl>              <dbl>
> >  1  1960               55.8
> >  2  1961               56.3
> >  3  1962               57.0
> >  4  1963               57.8
> >  5  1964               58.6
> >  6  1965               59.4
> >  7  1966               60.1
> >  8  1967               60.5
> >  9  1968               60.7
> > 10  1969               61.5
> > # … with 41 more rows
…
> > A2. To get the change per year and also world region, we can add `world_region` to 
> > `group_by()`:
> > 
> > 
> > ~~~
> > gapminder_clean %>% 
> >   group_by(year, world_region) %>% 
> >   summarise(life_expect_median = median(life_expectancy, na.rm = TRUE))
> > ~~~
> > {: .language-r}
> > 
> > 
> > 
> > ~~~
> > # A tibble: 306 x 3
> > # Groups:   year [51]
> >     year world_region             life_expect_median
> >    <dbl> <chr>                                 <dbl>
> >  1  1960 america                                60.8
> >  2  1960 east_asia_pacific                      55  
> >  3  1960 europe_central_asia                    68.7
> >  4  1960 middle_east_north_africa               52.7
> >  5  1960 south_asia                             42.8
> >  6  1960 sub_saharan_africa                     44.8
> >  7  1961 america                                61.3
> >  8  1961 east_asia_pacific                      55.5
> >  9  1961 europe_central_asia                    68.9
> > 10  1961 middle_east_north_africa               53.7
> > # … with 296 more rows
…
~~~
gapminder_clean %>% 
  group_by(year) %>% 
  mutate(population_pct = population_total/sum(population_total, na.rm = TRUE)*100) %>% 
  # select a few columns for readability purpose only
  select(country, year, population_total, population_pct)
~~~
{: .language-r}



~~~
# A tibble: 9,792 x 4
# Groups:   year [51]
   country      year population_total population_pct
   <chr>       <dbl>            <dbl>          <dbl>
 1 Afghanistan  1960          8996343          0.298
 2 Afghanistan  1961          9166754          0.298
 3 Afghanistan  1962          9345868          0.299
 4 Afghanistan  1963          9533952          0.299
 5 Afghanistan  1964          9731362          0.299
 6 Afghanistan  1965          9938420          0.299
 7 Afghanistan  1966         10152333          0.300
 8 Afghanistan  1967         10372619          0.300
 9 Afghanistan  1968         10604346          0.301
10 Afghanistan  1969         10854432          0.301
# … with 9,782 more rows
…
~~~
gapminder_clean %>% 
  group_by(year) %>% 
  filter(income_per_person == min(income_per_person, na.rm = TRUE))
~~~
{: .language-r}



~~~
# A tibble: 51 x 19
# Groups:   year [51]
   country world_region economic_organi… income_groups main_religion  year
   <chr>   <chr>        <chr>            <chr>         <chr>         <dbl>
 1 Congo,… sub_saharan… g77              low_income    christian      2000
 2 Congo,… sub_saharan… g77              low_income    christian      2001
 3 Congo,… sub_saharan… g77              low_income    christian      2002
 4 Congo,… sub_saharan… g77              low_income    christian      2003
 5 Congo,… sub_saharan… g77              low_income    christian      2004
 6 Congo,… sub_saharan… g77              low_income    christian      2005
 7 Congo,… sub_saharan… g77              low_income    christian      2006
 8 Congo,… sub_saharan… g77              low_income    christian      2007
 9 Congo,… sub_saharan… g77              low_income    christian      2008
10 Congo,… sub_saharan… g77              low_income    christian      2009
# … with 41 more rows, and 13 more variables: population_male <dbl>,
#   population_female <dbl>, income_per_person <dbl>, life_expectancy <dbl>,
#   life_expectancy_female <dbl>, life_expectancy_male <dbl>,
#   children_per_woman <dbl>, newborn_mortality <dbl>, child_mortality <dbl>,
#   school_years_men <dbl>, school_years_women <dbl>,
#   hdi_human_development_index <dbl>, population_total <dbl>
…
~~~
total_incomes <- gapminder_clean %>% 
  group_by(world_region, year) %>% 
  summarise(total_income = sum(income_per_person))

total_incomes
~~~
{: .language-r}



~~~
# A tibble: 306 x 3
# Groups:   world_region [6]
   world_region  year total_income
   <chr>        <dbl>        <dbl>
 1 america       1960       197929
 2 america       1961       201360
 3 america       1962       207046
 4 america       1963       209785
 5 america       1964       217924
 6 america       1965       225248
 7 america       1966       231937
 8 america       1967       237498
 9 america       1968       243673
10 america       1969       251068
# … with 296 more rows
…
