…
Let's start by doing an _inner join_, which retains only the entries common to both tables:


~~~
inner_join(gapminder_clean, energy, 
           by = c("country", "world_region", "year"))
~~~
{: .language-r}



~~~
# A tibble: 3,946 x 23
   country world_region economic_organi… income_groups main_religion  year
   <chr>   <chr>        <chr>            <chr>         <chr>         <dbl>
 1 Afghan… south_asia   g77              low_income    muslim         1990
 2 Afghan… south_asia   g77              low_income    muslim         1991
 3 Afghan… south_asia   g77              low_income    muslim         1992
 4 Afghan… south_asia   g77              low_income    muslim         1993
 5 Afghan… south_asia   g77              low_income    muslim         1994
 6 Afghan… south_asia   g77              low_income    muslim         1995
 7 Afghan… south_asia   g77              low_income    muslim         1996
 8 Afghan… south_asia   g77              low_income    muslim         1997
 9 Afghan… south_asia   g77              low_income    muslim         1998
10 Afghan… south_asia   g77              low_income    muslim         1999
# … with 3,936 more rows, and 17 more variables: population_male <dbl>,
#   population_female <dbl>, income_per_person <dbl>, life_expectancy <dbl>,
#   life_expectancy_female <dbl>, life_expectancy_male <dbl>,
#   children_per_woman <dbl>, newborn_mortality <dbl>, child_mortality <dbl>,
#   school_years_men <dbl>, school_years_women <dbl>,
#   hdi_human_development_index <dbl>, population_total <dbl>,
#   country_id <chr>, yearly_co2_emissions <dbl>, energy_use_per_person <dbl>,
#   energy_production_per_person <chr>
…
> > **A2.**
> > 
> > Again, the Venn diagram at the top of the page illustrates the result of an `anti_join()`, 
> > which we can apply to investigate this issue:
> > 
> > 
> > ~~~
> > anti_join(energy, gapminder_clean, by = c("country", "year", "world_region"))
> > ~~~
> > {: .language-r}
> > 
> > 
> > 
> > ~~~
> > # A tibble: 22 x 7
> >    country_id country world_region  year yearly_co2_emis… energy_use_per_…
> >    <chr>      <chr>   <chr>        <dbl>            <dbl>            <dbl>
> >  1 bra        Brasil  america       1995         258347.              993.
> >  2 nru        Nauru   east_asia_p…  1990            125.               NA 
> >  3 nru        Nauru   east_asia_p…  1991            125.               NA 
> >  4 nru        Nauru   east_asia_p…  1992            121.               NA 
> >  5 nru        Nauru   east_asia_p…  1993            114.               NA 
> >  6 nru        Nauru   east_asia_p…  1994            110.               NA 
> >  7 nru        Nauru   east_asia_p…  1995            106.               NA 
> >  8 nru        Nauru   east_asia_p…  1996            103.               NA 
> >  9 nru        Nauru   east_asia_p…  1997            103.               NA 
> > 10 nru        Nauru   east_asia_p…  1998             99.0              NA 
> > # … with 12 more rows, and 1 more variable: energy_production_per_person <chr>
…
