…
Let's start by doing an _inner join_, which retains only the entries common to both tables:


~~~
inner_join(gapminder_clean, energy, 
           by = c("country", "world_region", "year"))
~~~
{: .language-r}



~~~
# A tibble: 3,990 x 16
   country world_region  year children_per_wo… life_expectancy income_per_pers…
   <chr>   <chr>        <dbl>            <dbl>           <dbl>            <dbl>
 1 Afghan… South Asia    1990             7.47            52.6             1861
 2 Afghan… South Asia    1991             7.48            52.4             1645
 3 Afghan… South Asia    1992             7.5             52.9             1522
 4 Afghan… South Asia    1993             7.54            53.2             1009
 5 Afghan… South Asia    1994             7.57            52.7              721
 6 Afghan… South Asia    1995             7.61            53.3             1028
 7 Afghan… South Asia    1996             7.63            53.8              942
 8 Afghan… South Asia    1997             7.64            53.7              865
 9 Afghan… South Asia    1998             7.62            52.8              800
10 Afghan… South Asia    1999             7.57            54.4              735
# … with 3,980 more rows, and 10 more variables: is_oecd <lgl>,
#   income_groups <chr>, population <dbl>, main_religion <chr>,
#   child_mortality <dbl>, life_expectancy_female <dbl>,
#   life_expectancy_male <dbl>, yearly_co2_emissions <dbl>,
#   energy_use_per_person <dbl>, energy_production_per_person <chr>
…
