…
~~~
# A tibble: 192 x 52
   country yr1960 yr1961 yr1962 yr1963 yr1964 yr1965 yr1966 yr1967 yr1968 yr1969
   <chr>    <dbl>  <dbl>  <dbl>  <dbl>  <dbl>  <dbl>  <dbl>  <dbl>  <dbl>  <dbl>
 1 Afghan…   1213   1199   1195   1192   1190   1190   1176   1181   1196   1187
 2 Angola    3861   4311   4130   4278   4687   4964   5174   5393   5231   5300
 3 Albania   2792   2815   2908   3006   3107   3219   3337   3460   3581   3699
 4 Andorra  15234  16469  17805  19248  20809  22496  24320  26291  28422  30726
 5 United…   1767   1980   2219   2894   4917   8353  14190  24106  28964  34801
 6 Argent…   9025   9505   9191   8821   9586  10314  10226  10351  10652  11412
 7 Armenia   2517   2613   2639   2539   2826   2948   3055   3154   3304   3317
 8 Antigu…   4419   4527   4637   4749   4865   4983   5104   5228   5355   5485
 9 Austra…  14339  14119  14734  15350  16090  16593  16748  17561  18251  18938
10 Austria  12073  12634  12852  13280  13975  14275  14965  15298  15888  16823
# … with 182 more rows, and 41 more variables: yr1970 <dbl>, yr1971 <dbl>,
#   yr1972 <dbl>, yr1973 <dbl>, yr1974 <dbl>, yr1975 <dbl>, yr1976 <dbl>,
#   yr1977 <dbl>, yr1978 <dbl>, yr1979 <dbl>, yr1980 <dbl>, yr1981 <dbl>,
#   yr1982 <dbl>, yr1983 <dbl>, yr1984 <dbl>, yr1985 <dbl>, yr1986 <dbl>,
#   yr1987 <dbl>, yr1988 <dbl>, yr1989 <dbl>, yr1990 <dbl>, yr1991 <dbl>,
#   yr1992 <dbl>, yr1993 <dbl>, yr1994 <dbl>, yr1995 <dbl>, yr1996 <dbl>,
#   yr1997 <dbl>, yr1998 <dbl>, yr1999 <dbl>, yr2000 <dbl>, yr2001 <dbl>,
#   yr2002 <dbl>, yr2003 <dbl>, yr2004 <dbl>, yr2005 <dbl>, yr2006 <dbl>,
#   yr2007 <dbl>, yr2008 <dbl>, yr2009 <dbl>, yr2010 <dbl>
…
~~~
income_wide %>% 
  pivot_longer(cols = yr1960:yr2010,
               names_to = "year", 
               values_to = "income_per_person")
~~~
{: .language-r}



~~~
# A tibble: 9,792 x 3
   country     year   income_per_person
   <chr>       <chr>              <dbl>
 1 Afghanistan yr1960              1213
 2 Afghanistan yr1961              1199
 3 Afghanistan yr1962              1195
 4 Afghanistan yr1963              1192
 5 Afghanistan yr1964              1190
 6 Afghanistan yr1965              1190
 7 Afghanistan yr1966              1176
 8 Afghanistan yr1967              1181
 9 Afghanistan yr1968              1196
10 Afghanistan yr1969              1187
# … with 9,782 more rows
…
> 
> > ## Answer
> > 
> > 
> > ~~~
> > gapminder_clean %>% 
> >   select(country, year, life_expectancy) %>% 
> >   pivot_wider(names_from = "country", values_from = "life_expectancy")
> > ~~~
> > {: .language-r}
> > 
> > 
> > 
> > ~~~
> > # A tibble: 51 x 193
> >     year Afghanistan Angola Albania Andorra `United Arab Em… Argentina Armenia
> >    <dbl>       <dbl>  <dbl>   <dbl>   <dbl>            <dbl>     <dbl>   <dbl>
> >  1  1960        38.6   42.4    62.7      NA             55.0      64.1    62.0
> >  2  1961        39.4   43.0    63.7      NA             56.1      64.2    62.4
> >  3  1962        40.1   43.6    64.6      NA             57.2      64.2    62.7
> >  4  1963        40.8   44.3    65.3      NA             58.4      64.3    63.1
> >  5  1964        41.5   44.9    65.9      NA             59.4      64.4    63.5
> >  6  1965        42.2   45.5    66.3      NA             60.5      64.5    63.8
> >  7  1966        42.9   46.2    66.5      NA             61.6      64.6    64.2
> >  8  1967        43.7   46.8    66.7      NA             62.6      64.7    64.6
> >  9  1968        44.4   47.4    66.9      NA             63.5      64.9    64.9
> > 10  1969        45.1   48.1    67.1      NA             64.4      65.1    65.2
> > # … with 41 more rows, and 185 more variables: `Antigua and Barbuda` <dbl>,
> > #   Australia <dbl>, Austria <dbl>, Azerbaijan <dbl>, Burundi <dbl>,
> > #   Belgium <dbl>, Benin <dbl>, `Burkina Faso` <dbl>, Bangladesh <dbl>,
> > #   Bulgaria <dbl>, Bahrain <dbl>, Bahamas <dbl>, `Bosnia and
> > #   Herzegovina` <dbl>, Belarus <dbl>, Belize <dbl>, Bolivia <dbl>,
> > #   Brazil <dbl>, Barbados <dbl>, Brunei <dbl>, Bhutan <dbl>, Botswana <dbl>,
> > #   `Central African Republic` <dbl>, Canada <dbl>, Switzerland <dbl>,
> > #   Chile <dbl>, China <dbl>, `Cote d'Ivoire` <dbl>, Cameroon <dbl>, `Congo,
> > #   Dem. Rep.` <dbl>, `Congo, Rep.` <dbl>, Colombia <dbl>, Comoros <dbl>, `Cape
…
