…
~~~
# A tibble: 193 x 52
   country yr1960 yr1961 yr1962 yr1963 yr1964 yr1965 yr1966 yr1967 yr1968 yr1969
   <chr>    <dbl>  <dbl>  <dbl>  <dbl>  <dbl>  <dbl>  <dbl>  <dbl>  <dbl>  <dbl>
 1 Afghan…   2744   2702   2683   2665   2649   2641   2598   2601   2623   2594
 2 Angola    3861   4313   4134   4284   4695   4974   5187   5408   5247   5318
 3 Albania   2585   2607   2693   2785   2880   2985   3098   3215   3331   3444
 4 Andorra  15234  16469  17805  19248  20809  22496  24320  26291  28422  30726
 5 United…   1767   1973   2203   2863   4871   8285  14092  23968  28831  34679
 6 Argent…   9765  10299   9976   9589  10418  11202  11116  11257  11574  12385
 7 Armenia   3003   3120   3153   3034   3378   3524   3651   3769   3946   3959
 8 Antigu…   4419   4571   4727   4888   5055   5227   5405   5588   5777   5973
 9 Austra…  15972  15678  16311  16939  17700  18195  18305  19131  19817  20494
10 Austria  11302  11865  12105  12547  13242  13566  14262  14620  15226  16164
# … with 183 more rows, and 41 more variables: yr1970 <dbl>, yr1971 <dbl>,
#   yr1972 <dbl>, yr1973 <dbl>, yr1974 <dbl>, yr1975 <dbl>, yr1976 <dbl>,
#   yr1977 <dbl>, yr1978 <dbl>, yr1979 <dbl>, yr1980 <dbl>, yr1981 <dbl>,
#   yr1982 <dbl>, yr1983 <dbl>, yr1984 <dbl>, yr1985 <dbl>, yr1986 <dbl>,
#   yr1987 <dbl>, yr1988 <dbl>, yr1989 <dbl>, yr1990 <dbl>, yr1991 <dbl>,
#   yr1992 <dbl>, yr1993 <dbl>, yr1994 <dbl>, yr1995 <dbl>, yr1996 <dbl>,
#   yr1997 <dbl>, yr1998 <dbl>, yr1999 <dbl>, yr2000 <dbl>, yr2001 <dbl>,
#   yr2002 <dbl>, yr2003 <dbl>, yr2004 <dbl>, yr2005 <dbl>, yr2006 <dbl>,
#   yr2007 <dbl>, yr2008 <dbl>, yr2009 <dbl>, yr2010 <dbl>
…
~~~
income_wide %>% 
  pivot_longer(cols = yr1960:yr2010,
               names_to = "year", 
               values_to = "income_per_person")
~~~
{: .language-r}



~~~
# A tibble: 9,843 x 3
   country     year   income_per_person
   <chr>       <chr>              <dbl>
 1 Afghanistan yr1960              2744
 2 Afghanistan yr1961              2702
 3 Afghanistan yr1962              2683
 4 Afghanistan yr1963              2665
 5 Afghanistan yr1964              2649
 6 Afghanistan yr1965              2641
 7 Afghanistan yr1966              2598
 8 Afghanistan yr1967              2601
 9 Afghanistan yr1968              2623
10 Afghanistan yr1969              2594
# … with 9,833 more rows
…
> 
> > ## Answer
> > 
> > 
> > ~~~
> > gapminder_clean %>% 
> >   select(country, year, life_expectancy) %>% 
> >   pivot_wider(names_from = "country", values_from = "life_expectancy")
> > ~~~
> > {: .language-r}
> > 
> > 
> > 
> > ~~~
> > # A tibble: 51 x 194
> >     year Afghanistan Angola Albania Andorra `United Arab Em… Argentina Armenia
> >    <dbl>       <dbl>  <dbl>   <dbl>   <dbl>            <dbl>     <dbl>   <dbl>
> >  1  1960        39.3   40.6    62.2      NA             53.9      64.2    61.9
> >  2  1961        40.0   41.1    63.3      NA             55.0      64.4    62.2
> >  3  1962        40.8   41.7    64.2      NA             56.1      64.4    62.6
> >  4  1963        41.5   42.3    64.9      NA             57.2      64.5    62.9
> >  5  1964        42.2   42.9    65.4      NA             58.3      64.6    63.3
> >  6  1965        43.0   43.5    65.8      NA             59.3      64.6    63.7
> >  7  1966        43.7   44.1    66.1      NA             60.3      64.8    64.0
> >  8  1967        44.5   44.7    66.3      NA             61.3      64.9    64.4
> >  9  1968        45.2   45.3    66.4      NA             62.2      65.1    64.7
> > 10  1969        45.9   45.9    66.6      NA             63.1      65.3    65.0
> > # … with 41 more rows, and 186 more variables: `Antigua and Barbuda` <dbl>,
> > #   Australia <dbl>, Austria <dbl>, Azerbaijan <dbl>, Burundi <dbl>,
> > #   Belgium <dbl>, Benin <dbl>, `Burkina Faso` <dbl>, Bangladesh <dbl>,
> > #   Bulgaria <dbl>, Bahrain <dbl>, Bahamas <dbl>, `Bosnia and
> > #   Herzegovina` <dbl>, Belarus <dbl>, Belize <dbl>, Bolivia <dbl>,
> > #   Brazil <dbl>, Barbados <dbl>, Brunei <dbl>, Bhutan <dbl>, Botswana <dbl>,
> > #   `Central African Republic` <dbl>, Canada <dbl>, Switzerland <dbl>,
> > #   Chile <dbl>, China <dbl>, `Cote d'Ivoire` <dbl>, Cameroon <dbl>, `Congo,
> > #   Dem. Rep.` <dbl>, `Congo, Rep.` <dbl>, Colombia <dbl>, Comoros <dbl>, `Cape
…
